{
  "name": "Le Bon Sandwich : API pour appli cliente",
  "version": "0.1.0",
  "description": "api pour le site Le Bon Sandwich",
  "title": "lbs : api",
  "sampleUrl": false,
  "defaultVersion": "0.0.0",
  "apidoc": "0.3.0",
  "generator": {
    "name": "apidoc",
    "time": "2017-02-21T22:28:22.168Z",
    "url": "http://apidocjs.com",
    "version": "0.17.5"
  }
}
